// Jest Snapshot v1, https://goo.gl/fbAQLP

exports[`should match the snapshot 1`] = `
<ul>
  <li
    className="media"
    itemScope={true}
    itemType="https://schema.org/Periodical"
    key="first"
  >
    <div
      className="media-content"
    >
      <div
        className="content"
      >
        <p>
          <Link
            itemProp="url"
            replace={false}
            to="/journal/first"
          >
            <strong>
              Science
            </strong>
          </Link>
        </p>
      </div>
    </div>
  </li>
  <li
    className="media"
    itemScope={true}
    itemType="https://schema.org/Periodical"
    key="second"
  >
    <div
      className="media-content"
    >
      <div
        className="content"
      >
        <p>
          <Link
            itemProp="url"
            replace={false}
            to="/journal/second"
          >
            <strong>
              Notes on Social Agents
            </strong>
          </Link>
          <br />
          Representing Humans In Society
        </p>
      </div>
    </div>
  </li>
  <li
    className="media"
    itemScope={true}
    itemType="https://schema.org/Periodical"
    key="third"
  >
    <div
      className="media-content"
    >
      <div
        className="content"
      >
        <p>
          <Link
            itemProp="url"
            replace={false}
            to="/journal/third"
          >
            <strong>
              Sample journal of X
            </strong>
          </Link>
        </p>
      </div>
    </div>
  </li>
  <li
    className="media"
    itemScope={true}
    itemType="https://schema.org/Periodical"
    key="fourth"
  >
    <div
      className="media-content"
    >
      <div
        className="content"
      >
        <p
          title="We celebrate the biodesign ideas, specifications and experimental data gathered by our BioBuilder community during workshops, through BioBuilderClubs throughout the country, and in classrooms around the world"
        >
          <Link
            itemProp="url"
            replace={false}
            to="/journal/fourth"
          >
            <strong>
              BioBuilder Magazine
            </strong>
          </Link>
        </p>
      </div>
    </div>
  </li>
  <li
    className="media"
    itemScope={true}
    itemType="https://schema.org/Periodical"
    key="fifth"
  >
    <div
      className="media-content"
    >
      <div
        className="content"
      >
        <p
          title="Studies meant to create a carbon-free living environment."
        >
          <Link
            itemProp="url"
            replace={false}
            to="/journal/fifth"
          >
            <strong>
              Zero Carbon Housing
            </strong>
          </Link>
          <br />
          Heat your home, not the planet
        </p>
      </div>
    </div>
  </li>
  <li
    className="media"
    itemScope={true}
    itemType="https://schema.org/Periodical"
    key="arbitrary_uuid"
  >
    <div
      className="media-content"
    >
      <div
        className="content"
      >
        <p>
          <Link
            itemProp="url"
            replace={false}
            to="/journal/arbitrary_uuid"
          >
            <strong>
              Unnamed journal
            </strong>
          </Link>
        </p>
      </div>
    </div>
  </li>
</ul>
`;
